…
raw <- raw %>%
    rename(gwcode = gwid) %>%
    mutate(reg_aut = case_when(
      is.na(reg_aut) ~ FALSE,
      TRUE ~ reg_aut
    ))
  raw
```

    ## # A tibble: 4,339 × 11
    ##    gwcode statename   from    to group  groupid gwgroupid umbrella   size status
    ##     <int> <chr>      <int> <int> <chr>    <dbl>     <dbl>    <int>  <dbl> <chr> 
    ##  1      2 United St…  1946  1965 Whites    1000    201000       NA 0.691  MONOP…
    ##  2      2 United St…  1946  1965 Afric…    3000    203000       NA 0.124  DISCR…
    ##  3      2 United St…  1946  1965 Ameri…    5000    205000       NA 0.0078 POWER…
    ##  4      2 United St…  1966  2008 Whites    1000    201000       NA 0.691  DOMIN…
    ##  5      2 United St…  1966  2008 Latin…    2000    202000       NA 0.125  POWER…
    ##  6      2 United St…  1966  2008 Afric…    3000    203000       NA 0.124  POWER…
    ##  7      2 United St…  1966  2008 Asian…    4000    204000       NA 0.036  POWER…
    ##  8      2 United St…  1966  2008 Ameri…    5000    205000       NA 0.0078 POWER…
    ##  9      2 United St…  1966  2008 Arab …    6000    206000       NA 0.0042 POWER…
    ## 10      2 United St…  2009  2014 Whites    1000    201000       NA 0.66   SENIO…
    ## # … with 4,329 more rows, and 1 more variable: reg_aut <lgl>
…
